Project 1: Exploratory Data Analysis
…
mutctyst %>% summarize_all(function(x) mean(!is.na(x)))

## # A tibble: 1 x 8
##   Country Region Happiness.Score Life.Expectancy   BMI   GDP Population
##     <dbl>  <dbl>           <dbl>           <dbl> <dbl> <dbl>      <dbl>
## 1       1      1               1           0.917 0.904 0.815      0.764
## # … with 1 more variable: GDP.Per.Capita <dbl>

mutctyst %>% group_by(Country) %>% arrange(desc(BMI))

## # A tibble: 157 x 8
## # Groups:   Country [157]
##    Country Region Happiness.Score Life.Expectancy   BMI    GDP Population
##    <chr>   <chr>            <dbl>           <dbl> <dbl>  <dbl>      <dbl>
##  1 Kuwait  Middl…            6.24            74.7  71.4 28975.         NA
##  2 United… North…            7.10            79.3  69.6    NA          NA
##  3 Malta   Weste…            6.49            81.7  69.6 23819.     431874
##  4 Qatar   Middl…            6.38            78.2  69.3 66347.         NA
##  5 Saudi … Middl…            6.38            74.5  68.2  2733.         NA
##  6 New Ze… Austr…            7.33            81.6  67.5  3822.         NA
##  7 Canada  North…            7.40            82.2  67   43316.    3584861
##  8 Austra… Austr…            7.31            82.8  66.6 56554.   23789338
##  9 United… Weste…            6.72            81.2  66.6    NA          NA
## 10 Spain   Weste…            6.36            82.8  66.6 25684.   46447697
## # … with 147 more rows, and 1 more variable: GDP.Per.Capita <dbl>

mutctyst %>% filter(Happiness.Score > mean(Happiness.Score, na.rm = TRUE)) %>% 
    arrange(GDP)

## # A tibble: 78 x 8
##    Country Region Happiness.Score Life.Expectancy   BMI    GDP Population
##    <chr>   <chr>            <dbl>           <dbl> <dbl>  <dbl>      <dbl>
##  1 Peru    Latin…            5.74            75.5  55.6   63.3   31376671
##  2 Kazakh… Centr…            5.92            72    53.1  160.    17544126
##  3 Nicara… Latin…            5.99            74.8  54    296.       68235
##  4 Italy   Weste…            5.98            82.7  63.6  349.      673582
##  5 Paragu… Latin…            5.54            74     5.2  419.     6639119
##  6 Somalia Sub-S…            5.44            55    24.3  427.          NA
##  7 Ecuador Latin…            5.98            76.2  54.2  626.    16144368
##  8 Colomb… Latin…            6.48            74.8  57.9  645.    48228697
##  9 Costa … Latin…            7.09            79.6   6.5 1146.      487852
## 10 Luxemb… Weste…            6.87            82    61.3 1200.       56964
## # … with 68 more rows, and 1 more variable: GDP.Per.Capita <dbl>
…
mutctyst %>% group_by(Country) %>% arrange(desc(GDP.Per.Capita))

## # A tibble: 157 x 8
## # Groups:   Country [157]
##    Country Region Happiness.Score Life.Expectancy   BMI    GDP Population
##    <chr>   <chr>            <dbl>           <dbl> <dbl>  <dbl>      <dbl>
##  1 Israel  Middl…            7.27            82.5  64.9 35729.       8381
##  2 Sri La… South…            4.42            74.9  23.4  3845.       2966
##  3 Trinid… Latin…            6.17            71.2  47.1 17322.      13692
##  4 Lithua… Centr…            5.81            73.6  62.4 14252.      29491
##  5 Croatia Centr…            5.49            78    63.7 11580.      42364
##  6 Japan   Easte…            5.92            83.7  29   34474.     127141
##  7 Iceland Weste…            7.50            82.7  61    5734.      33815
##  8 Surina… Latin…            6.27            71.6  58.3  8819.      55328
##  9 Albania Centr…            4.66            77.8  58    3954.      28873
## 10 Georgia Centr…            4.25            74.4  56.2  3765.      37171
## # … with 147 more rows, and 1 more variable: GDP.Per.Capita <dbl>
…
mutctyst %>% filter(Population > median(Population, na.rm = TRUE)) %>% 
    arrange(desc(Happiness.Score))

## # A tibble: 60 x 8
##    Country Region Happiness.Score Life.Expectancy   BMI    GDP Population
##    <chr>   <chr>            <dbl>           <dbl> <dbl>  <dbl>      <dbl>
##  1 Denmark Weste…            7.53            86    58.8  5315.    5683483
##  2 Switze… Weste…            7.51            83.4  57.4  8990.    8282396
##  3 Finland Weste…            7.41            81.1  62.1  4245.    5479531
##  4 Canada  North…            7.40            82.2  67   43316.    3584861
##  5 Nether… Weste…            7.34            81.9  62.1 44293.   16939923
##  6 Austra… Austr…            7.31            82.8  66.6 56554.   23789338
##  7 Sweden  Weste…            7.29            82.4  59.5  5585.    9799186
##  8 Austria Weste…            7.12            81.5  57.6 43666.    8633169
##  9 Germany Weste…            6.99            81    62.3 41177.   81686611
## 10 Belgium Weste…            6.93            81.1  63.7  4357.   11274196
## # … with 50 more rows, and 1 more variable: GDP.Per.Capita <dbl>
…
