Project 2: Modeling, Testing, and Predicting
…
studentsvar$age <- students$age %>% as.numeric()
studentsvar <- studentsvar[(studentsvar$age<19),]
studentsvar$absences <- studentsvar$absences %>% as.numeric()
studentsvar <- studentsvar[(studentsvar$absences<20),]
studentsvar$tutor <- studentsvar$tutor %>% as.integer()
studentsvar

## # A tibble: 352 x 13
## sex age address Pstatus Mjob Fjob tutor internet
romantic go_out weekday_alc weekend_alc
## <chr> <dbl> <chr> <chr> <chr> <chr> <int> <dbl> <dbl>
<dbl> <dbl> <dbl>
## 1 F 18 U A at_h… teac… 0 0 0 4 1 1
## 2 F 17 U T at_h… other 0 1 0 3 1 1
## 3 F 15 U T at_h… other 1 1 0 2 2 3
## 4 F 15 U T heal… serv… 1 1 1 2 1 1
## 5 F 16 U T other other 1 0 0 2 1 2
## 6 M 16 U T serv… other 1 1 0 2 1 2
## 7 M 16 U T other other 0 1 0 4 1 1
## 8 F 17 U A other teac… 0 0 0 4 1 1
## 9 M 15 U A serv… other 1 1 0 2 1 1
## 10 M 15 U T other other 1 1 0 1 1 1
## # … with 342 more rows, and 1 more variable: absences
…
